<?xml version="1.0" encoding="UTF-8" standalone="no"?>
<!-- Created with Inkscape (http://www.inkscape.org/) -->

<svg
   xmlns:dc="http://purl.org/dc/elements/1.1/"
   xmlns:cc="http://creativecommons.org/ns#"
   xmlns:rdf="http://www.w3.org/1999/02/22-rdf-syntax-ns#"
   xmlns:svg="http://www.w3.org/2000/svg"
   xmlns="http://www.w3.org/2000/svg"
   xmlns:sodipodi="http://sodipodi.sourceforge.net/DTD/sodipodi-0.dtd"
   xmlns:inkscape="http://www.inkscape.org/namespaces/inkscape"
   width="210mm"
   height="297mm"
   viewBox="0 0 210 297"
   version="1.1"
   id="svg8"
   sodipodi:docname="affiche-chatons.svg"
   inkscape:version="0.92.4 (5da689c313, 2019-01-14)"
   inkscape:export-filename="/home/numahell/Documents/Assos/Framasoft/CHATONS/affiche-chatons.png"
   inkscape:export-xdpi="89.969025"
   inkscape:export-ydpi="89.969025">
  <defs
     id="defs2">
    <filter
       inkscape:collect="always"
       style="color-interpolation-filters:sRGB"
       id="filter3399"
       x="-0.011902419"
       width="1.0238048"
       y="-0.012099194"
       height="1.0241984">
      <feGaussianBlur
         inkscape:collect="always"
         stdDeviation="2.4395"
         id="feGaussianBlur3401" />
    </filter>
    <filter
       inkscape:collect="always"
       style="color-interpolation-filters:sRGB"
       id="filter6088"
       x="-0.020740649"
       width="1.0414813"
       y="-0.028474752"
       height="1.0569495">
      <feGaussianBlur
         inkscape:collect="always"
         stdDeviation="0.77811543"
         id="feGaussianBlur6090" />
    </filter>
  </defs>
  <sodipodi:namedview
     id="base"
     pagecolor="#ffffff"
     bordercolor="#666666"
     borderopacity="1.0"
     inkscape:pageopacity="1"
     inkscape:pageshadow="2"
     inkscape:zoom="0.7"
     inkscape:cx="-241.97439"
     inkscape:cy="465.5428"
     inkscape:document-units="mm"
     inkscape:current-layer="layer1"
     showgrid="false"
     inkscape:window-width="1850"
     inkscape:window-height="1016"
     inkscape:window-x="70"
     inkscape:window-y="27"
     inkscape:window-maximized="1"
     inkscape:pagecheckerboard="true" />
  <metadata
     id="metadata5">
    <rdf:RDF>
      <cc:Work
         rdf:about="">
        <dc:format>image/svg+xml</dc:format>
        <dc:type
           rdf:resource="http://purl.org/dc/dcmitype/StillImage" />
        <dc:title></dc:title>
      </cc:Work>
    </rdf:RDF>
  </metadata>
  <g
     inkscape:label="Calque 1"
     inkscape:groupmode="layer"
     id="layer1">
    <g
       id="g340"
       transform="matrix(0.07859454,0,0,0.07859454,31.71447,46.252383)"
       inkscape:export-xdpi="90"
       inkscape:export-ydpi="90">
      <g
         id="Calque_4">
        <polygon
           id="polygon179"
           points="331,120.5 505.4,604.4 144.8,604.4 13.5,240.1 169.9,314.8 255.4,284 "
           class="st0"
           style="fill:#feca5d" />
        <polygon
           id="polygon181"
           points="95.8,355 66.1,357.3 28.9,264 "
           class="st1"
           style="fill:#cc9237" />
        <polyline
           id="polyline183"
           points="364.1,244.3 329.6,150 340.6,262.8  "
           class="st1"
           style="fill:#cc9237" />
        <circle
           id="ellipse185"
           cy="407.29999"
           cx="342.89999"
           class="st2"
           transform="matrix(0.9877,-0.1564,0.1564,0.9877,-59.4858,58.6365)"
           r="55.700001"
           style="fill:#ffffff" />
        <ellipse
           id="ellipse187"
           ry="37.099998"
           rx="29.700001"
           cy="409.10001"
           cx="343.5"
           class="st1"
           transform="matrix(0.9877,-0.1564,0.1564,0.9877,-59.7545,58.7579)"
           style="fill:#cc9237" />
        <circle
           id="ellipse189"
           cy="465.20001"
           cx="184.5"
           class="st2"
           transform="matrix(0.9877,-0.1564,0.1564,0.9877,-70.4956,34.5851)"
           r="55.700001"
           style="fill:#ffffff" />
        <polygon
           id="polygon191"
           points="282.5,516.8 253.3,503.1 257.9,492.4 304.1,475.8 314.1,480.4 299.9,510.6 "
           class="st1"
           style="fill:#cc9237" />
        <path
           id="path193"
           d="m 301.7,517.3 c -7.8,6.7 32.3,20.9 71.2,5.6 15.4,-6 47.6,-29.3 46,-34.1 0,0 -25.5,24.6 -56.5,22.3 -29.8,-2.3 -47.7,-4.9 -60.7,6.2 z"
           class="st2"
           inkscape:connector-curvature="0"
           style="fill:#ffffff" />
        <ellipse
           id="ellipse195"
           ry="37.099998"
           rx="29.700001"
           cy="467"
           cx="185.2"
           class="st1"
           transform="matrix(0.8604,-0.5096,0.5096,0.8604,-212.1454,159.5454)"
           style="fill:#cc9237" />
        <path
           id="path197"
           d="m 289.3,521.8 c 10.3,0.2 -11.5,36.7 -51.3,49.7 -15.7,5.1 -55.3,7.8 -57.2,3 0,0 35.3,2.7 57.7,-18.9 21.6,-20.7 33.8,-34.1 50.8,-33.8 z"
           class="st2"
           inkscape:connector-curvature="0"
           style="fill:#ffffff" />
        <path
           id="path199"
           d="m 297.6,527.6 c 4,11 -11.4,26.6 -34.4,34.9"
           class="st3"
           inkscape:connector-curvature="0"
           style="fill:none;stroke:#cc9237;stroke-width:5;stroke-miterlimit:10" />
        <path
           id="path201"
           d="m 298.4,527.3 c 4,11 25.8,13.2 48.7,4.9"
           class="st3"
           inkscape:connector-curvature="0"
           style="fill:none;stroke:#cc9237;stroke-width:5;stroke-miterlimit:10" />
      </g>
      <g
         id="Calque_3">
        <polygon
           id="polygon204"
           points="974.6,258.2 847.8,605.1 471.7,602.5 655.3,143.6 729.5,292.7 814.6,324.5 "
           class="st4"
           style="fill:#e5ae37" />
        <polygon
           id="polygon206"
           points="647,281.9 622.8,264.4 654.9,169.2 "
           class="st0"
           style="fill:#feca5d" />
        <polyline
           id="polyline208"
           points="923.2,371.1 957.9,276.9 893.3,370  "
           class="st0"
           style="fill:#feca5d" />
        <polygon
           id="polygon210"
           points="698.8,487.6 685.4,458.3 695.8,453.1 741.9,470.3 746.4,480.3 716.1,494.1 "
           class="st0"
           style="fill:#feca5d" />
        <path
           id="path212"
           d="m 703.2,504.5 c -4.1,10.9 -25.9,12.9 -48.8,4.3"
           class="st5"
           inkscape:connector-curvature="0"
           style="fill:none;stroke:#feca5d;stroke-width:5;stroke-miterlimit:10" />
        <path
           id="path214"
           d="m 703.2,504.5 c -4.1,10.9 11.1,26.7 34,35.3"
           class="st5"
           inkscape:connector-curvature="0"
           style="fill:none;stroke:#feca5d;stroke-width:5;stroke-miterlimit:10" />
        <ellipse
           id="ellipse216"
           ry="53.900002"
           rx="42.700001"
           cy="443.10001"
           cx="809.59998"
           class="st2"
           transform="matrix(0.1682,-0.9858,0.9858,0.1682,236.7114,1166.6821)"
           style="fill:#ffffff" />
        <circle
           id="ellipse218"
           cy="443.70001"
           cx="798.90002"
           class="st0"
           transform="matrix(0.1682,-0.9858,0.9858,0.1682,227.2142,1156.5929)"
           r="33.700001"
           style="fill:#feca5d" />
        <ellipse
           id="ellipse220"
           ry="53.900002"
           rx="42.700001"
           cy="386.39999"
           cx="658.09998"
           class="st2"
           transform="matrix(0.5198,-0.8543,0.8543,0.5198,-14.1075,747.7414)"
           style="fill:#ffffff" />
        <path
           id="path222"
           d="m 622.8,371.9 c 9.7,-15.9 30.4,-21 46.3,-11.3 19.2,11.7 17.6,35.9 11.3,46.3 -9.7,15.9 -30.4,21 -46.3,11.3 -16,-9.7 -21,-30.4 -11.3,-46.3 z"
           class="st0"
           inkscape:connector-curvature="0"
           style="fill:#feca5d" />
        <polyline
           id="polyline224"
           points="819.3,389 818.3,324 883.4,323  "
           class="st0"
           style="fill:#feca5d" />
        <polyline
           id="polyline226"
           points="754.1,324.9 819.2,324 818.2,258.9  "
           class="st0"
           style="fill:#feca5d" />
        <circle
           id="ellipse228"
           cy="324"
           cx="818.29999"
           class="st1"
           transform="matrix(0.9999,-0.01505521,0.01505521,0.9999,-4.7848,12.3569)"
           r="9.8000002"
           style="fill:#cc9237" />
      </g>
      <g
         id="Calque_2">
        <polygon
           id="polygon231"
           points="680.2,167.8 680.4,609.4 335.6,607.7 340.3,160 463.5,283.6 554.4,283.5 "
           class="st1"
           style="fill:#cc9237" />
        <polygon
           id="polygon233"
           points="382,292.4 353.3,284.5 349.8,184.2 "
           class="st0"
           style="fill:#feca5d" />
        <polyline
           id="polyline235"
           points="672.1,288.4 671.6,188 643.7,297.9  "
           class="st0"
           style="fill:#feca5d" />
        <polygon
           id="polygon237"
           points="496.3,482.4 473.5,459.6 481.4,451.1 530.6,451.1 538.3,458.8 514.8,482.4 "
           class="st0"
           style="fill:#feca5d" />
        <path
           id="path239"
           d="m 506.4,496.7 c 0,11.7 -19.7,21.2 -44.1,21.2"
           class="st5"
           inkscape:connector-curvature="0"
           style="fill:none;stroke:#feca5d;stroke-width:5;stroke-miterlimit:10" />
        <path
           id="path241"
           d="m 506.4,496.7 c 0,11.7 19.8,21.1 44.2,21.1"
           class="st5"
           inkscape:connector-curvature="0"
           style="fill:none;stroke:#feca5d;stroke-width:5;stroke-miterlimit:10" />
        <path
           id="path243"
           d="m 361.9,406 c 31.9,-29.7 81.8,-28 111.6,3.9"
           class="st6"
           inkscape:connector-curvature="0"
           style="fill:none;stroke:#ffffff;stroke-width:4;stroke-miterlimit:10" />
        <path
           id="path245"
           d="M 642.9,405.7 C 610.9,376 561,377.9 531.3,409.9"
           class="st6"
           inkscape:connector-curvature="0"
           style="fill:none;stroke:#ffffff;stroke-width:4;stroke-miterlimit:10" />
        <path
           id="path247"
           d="m 466.5,490.1 c 0,-10.4 -38.9,-18.8 -86.9,-18.7"
           class="st7"
           inkscape:connector-curvature="0"
           style="fill:none;stroke:#ffffff;stroke-width:2;stroke-miterlimit:10" />
        <path
           id="path249"
           d="m 462.2,493.4 c 0,-3.9 -44.8,-7 -100.3,-6.9"
           class="st7"
           inkscape:connector-curvature="0"
           style="fill:none;stroke:#ffffff;stroke-width:2;stroke-miterlimit:10" />
        <path
           id="path251"
           d="m 466.5,502.3 c 0,2.7 -37,5 -82.7,5"
           class="st7"
           inkscape:connector-curvature="0"
           style="fill:none;stroke:#ffffff;stroke-width:2;stroke-miterlimit:10" />
        <path
           id="path253"
           d="m 538.9,490.6 c 0,-10.4 38.9,-18.8 86.9,-18.9"
           class="st7"
           inkscape:connector-curvature="0"
           style="fill:none;stroke:#ffffff;stroke-width:2;stroke-miterlimit:10" />
        <path
           id="path255"
           d="m 543.1,493.9 c 0,-3.9 44.8,-7.1 100.2,-7.2"
           class="st7"
           inkscape:connector-curvature="0"
           style="fill:none;stroke:#ffffff;stroke-width:2;stroke-miterlimit:10" />
        <path
           id="path257"
           d="m 538.9,502.9 c 0,2.7 37,4.9 82.7,4.8"
           class="st7"
           inkscape:connector-curvature="0"
           style="fill:none;stroke:#ffffff;stroke-width:2;stroke-miterlimit:10" />
      </g>
      <g
         id="Calque_1">
        <rect
           id="rect260"
           height="13.8"
           width="705.5"
           class="st1"
           y="602.5"
           x="143.7"
           style="fill:#cc9237" />
        <g
           id="g276">
          <path
             id="path262"
             d="m 234.4,759.5 c 0.9,1.7 1.7,3.4 2.4,4.9 0.7,1.6 1.2,3.2 1.5,4.9 -3.8,1.9 -8.4,3.4 -13.7,4.5 -5.3,1.1 -10.9,1.6 -16.8,1.6 -8.3,0 -15.8,-1.4 -22.6,-4.1 -6.8,-2.7 -12.7,-6.7 -17.6,-11.9 -4.9,-5.2 -8.6,-11.7 -11.4,-19.4 -2.7,-7.7 -4.1,-16.6 -4.1,-26.6 0,-10.2 1.3,-19.4 4,-27.4 2.7,-8 6.4,-14.8 11.2,-20.3 4.8,-5.5 10.6,-9.7 17.5,-12.6 6.8,-2.9 14.5,-4.3 23,-4.3 7.1,0 13.1,0.5 17.8,1.5 4.7,1 8.2,1.9 10.3,2.6 -0.2,2 -0.5,3.8 -0.9,5.1 -0.4,1.4 -1,3 -1.8,4.9 -1.5,-0.5 -3,-0.9 -4.5,-1.4 -1.5,-0.5 -3.3,-0.9 -5.2,-1.2 -1.9,-0.3 -4.2,-0.6 -6.7,-0.9 -2.5,-0.2 -5.5,-0.3 -8.9,-0.3 -6.7,0 -12.7,1.2 -18,3.7 -5.3,2.4 -9.8,6 -13.6,10.7 -3.7,4.7 -6.6,10.3 -8.6,17.1 -2,6.7 -3.1,14.3 -3.1,22.9 0,8.8 1.1,16.4 3.4,22.9 2.3,6.5 5.4,11.9 9.4,16.1 4,4.3 8.7,7.4 14.1,9.5 5.4,2 11.2,3.1 17.4,3.1 5.3,0 10.1,-0.5 14.5,-1.5 4.5,-1.2 8.1,-2.5 11,-4.1 z"
             class="st1"
             inkscape:connector-curvature="0"
             style="fill:#cc9237" />
          <path
             id="path264"
             d="m 263.3,650.9 c 0.8,-0.1 1.8,-0.2 2.9,-0.3 1.1,-0.1 2.1,-0.1 3.1,-0.1 1,0 2,0 3.1,0.1 1,0.1 1.9,0.1 2.7,0.3 v 52.2 h 60 v -52.2 c 0.8,-0.1 1.7,-0.2 2.7,-0.3 1,-0.1 2,-0.1 3.1,-0.1 0.9,0 1.9,0 3.1,0.1 1.1,0.1 2.1,0.1 2.9,0.3 v 122.6 c -0.7,0.1 -1.6,0.2 -2.6,0.3 -1.1,0.1 -2.2,0.1 -3.3,0.1 -1,0 -2,0 -3.1,-0.1 -1,-0.1 -1.9,-0.1 -2.7,-0.3 v -59.7 h -60 v 59.7 c -0.8,0.1 -1.7,0.2 -2.7,0.3 -1,0.1 -2,0.1 -3.1,0.1 -1.1,0 -2.2,0 -3.3,-0.1 -1.1,-0.1 -2,-0.1 -2.6,-0.3 V 650.9 Z"
             class="st1"
             inkscape:connector-curvature="0"
             style="fill:#cc9237" />
          <path
             id="path266"
             d="m 407.9,650.9 c 0.8,-0.1 1.9,-0.2 3.2,-0.3 1.4,-0.1 2.6,-0.1 3.7,-0.1 1.2,0 2.5,0 3.8,0.1 1.3,0.1 2.3,0.1 3.1,0.3 l 40.7,122.6 c -0.7,0.1 -1.6,0.2 -2.9,0.3 -1.2,0.1 -2.4,0.1 -3.6,0.1 -1,0 -2.1,0 -3.2,-0.1 -1.1,-0.1 -2.1,-0.1 -2.9,-0.3 l -10.2,-31.2 h -50.2 l -9.7,31.2 c -0.9,0.1 -2,0.2 -3.1,0.3 -1.2,0.1 -2.3,0.1 -3.3,0.1 -1.1,0 -2.3,0 -3.5,-0.1 -1.2,-0.1 -2.1,-0.1 -2.8,-0.3 z m 28.5,80.5 -21.9,-68.2 -21.5,68.2 z"
             class="st1"
             inkscape:connector-curvature="0"
             style="fill:#cc9237" />
          <path
             id="path268"
             d="m 491.9,661.5 h -32.7 c -0.1,-0.7 -0.2,-1.5 -0.3,-2.5 -0.1,-1 -0.1,-1.9 -0.1,-2.8 0,-0.8 0,-1.7 0.1,-2.7 0.1,-1 0.1,-1.9 0.3,-2.6 h 77.2 c 0.1,0.7 0.2,1.5 0.3,2.4 0.1,0.9 0.1,1.8 0.1,2.7 0,0.8 0,1.7 -0.1,2.8 -0.1,1.1 -0.1,2 -0.3,2.6 h -32.7 v 112.1 c -0.8,0.1 -1.7,0.2 -2.7,0.3 -1,0.1 -2,0.1 -3.1,0.1 -1.1,0 -2.2,0 -3.3,-0.1 -1.1,-0.1 -2,-0.1 -2.6,-0.3 v -112 z"
             class="st1"
             inkscape:connector-curvature="0"
             style="fill:#cc9237" />
          <path
             id="path270"
             d="m 594.5,775.6 c -8.5,0 -15.9,-1.6 -22.2,-4.7 -6.3,-3.1 -11.6,-7.5 -15.7,-13.1 -4.1,-5.6 -7.2,-12.3 -9.3,-20.1 -2.1,-7.8 -3.1,-16.3 -3.1,-25.5 0,-9.2 1,-17.7 3.1,-25.4 2.1,-7.7 5.2,-14.4 9.3,-20 4.1,-5.6 9.4,-10 15.7,-13.1 6.3,-3.1 13.7,-4.7 22.2,-4.7 8.5,0 15.9,1.6 22.2,4.7 6.3,3.1 11.6,7.5 15.7,13.1 4.1,5.6 7.2,12.3 9.3,20 2.1,7.7 3.1,16.2 3.1,25.4 0,9.2 -1,17.7 -3.1,25.5 -2.1,7.8 -5.2,14.5 -9.3,20.1 -4.1,5.6 -9.4,10 -15.7,13.1 -6.3,3.1 -13.7,4.7 -22.2,4.7 z m 0,-10.8 c 6.6,0 12.2,-1.3 17,-3.8 4.8,-2.6 8.7,-6.2 11.9,-10.8 3.2,-4.7 5.5,-10.2 7,-16.7 1.5,-6.5 2.3,-13.6 2.3,-21.3 0,-7.7 -0.8,-14.8 -2.3,-21.3 -1.5,-6.5 -3.9,-12 -7,-16.6 -3.2,-4.6 -7.1,-8.2 -11.9,-10.7 -4.7,-2.6 -10.4,-3.8 -17,-3.8 -6.6,0 -12.2,1.3 -17,3.8 -4.8,2.6 -8.8,6.1 -11.9,10.7 -3.1,4.6 -5.4,10.1 -7,16.6 -1.5,6.5 -2.3,13.6 -2.3,21.3 0,7.7 0.8,14.8 2.3,21.3 1.5,6.5 3.8,12.1 7,16.7 3.1,4.7 7.1,8.3 11.9,10.8 4.7,2.6 10.4,3.8 17,3.8 z"
             class="st1"
             inkscape:connector-curvature="0"
             style="fill:#cc9237" />
          <path
             id="path272"
             d="m 672.8,650.9 c 0.8,-0.1 1.8,-0.2 3.1,-0.3 1.3,-0.1 2.4,-0.1 3.3,-0.1 0.9,0 2,0 3.2,0.1 1.2,0.1 2.3,0.1 3.1,0.3 l 58.3,102.7 V 650.9 c 0.8,-0.1 1.7,-0.2 2.6,-0.3 1,-0.1 2,-0.1 3,-0.1 0.9,0 1.9,0 3,0.1 1.1,0.1 2,0.1 2.8,0.3 v 122.6 c -0.7,0.1 -1.7,0.2 -3,0.3 -1.3,0.1 -2.5,0.1 -3.5,0.1 -0.9,0 -2,0 -3.2,-0.1 -1.2,-0.1 -2.3,-0.1 -3.1,-0.3 L 684.1,671.7 v 101.8 c -0.8,0.1 -1.7,0.2 -2.6,0.3 -1,0.1 -2,0.1 -3,0.1 -1.1,0 -2.2,0 -3.2,-0.1 -1,-0.1 -1.9,-0.1 -2.5,-0.3 z"
             class="st1"
             inkscape:connector-curvature="0"
             style="fill:#cc9237" />
          <path
             id="path274"
             d="m 784.9,759.9 c 1.6,0.5 3.2,1 4.9,1.5 1.7,0.6 3.6,1.1 5.7,1.5 2.1,0.5 4.4,0.9 7,1.2 2.6,0.3 5.6,0.5 9,0.5 5.4,0 10.1,-0.7 14,-2 3.9,-1.3 7.1,-3.1 9.7,-5.3 2.5,-2.2 4.4,-4.8 5.7,-7.8 1.2,-3 1.9,-6.3 1.9,-9.8 0,-3.4 -0.4,-6.3 -1.3,-8.8 -0.8,-2.4 -2.3,-4.7 -4.4,-6.7 -2.1,-2 -5,-4 -8.6,-5.9 -3.7,-1.9 -8.3,-3.9 -13.8,-6.1 -4,-1.5 -7.7,-3.1 -11.3,-4.8 -3.6,-1.7 -6.7,-3.8 -9.4,-6.2 -2.7,-2.4 -4.9,-5.4 -6.4,-8.8 -1.6,-3.4 -2.4,-7.7 -2.4,-12.8 0,-9.2 3.3,-16.7 9.9,-22.3 6.6,-5.7 16.3,-8.5 28.9,-8.5 2.5,0 5,0.1 7.5,0.3 2.5,0.2 4.9,0.5 7.1,0.9 2.2,0.3 4.2,0.7 6.1,1.2 1.9,0.5 3.4,0.9 4.5,1.2 -0.2,1.7 -0.5,3.4 -0.9,5.2 -0.4,1.8 -0.9,3.4 -1.4,5 -2.7,-0.9 -6.2,-1.7 -10.4,-2.5 -4.2,-0.7 -8.5,-1.1 -12.6,-1.1 -9.4,0 -16.1,1.9 -20.2,5.8 -4.1,3.9 -6.1,8.8 -6.1,14.7 0,3.1 0.6,5.7 1.9,8 1.2,2.3 3,4.3 5.2,6 2.2,1.7 4.8,3.3 7.9,4.7 3.1,1.4 6.3,2.8 9.8,4.2 4.7,1.9 9.2,3.9 13.3,6 4.1,2 7.7,4.4 10.6,7.2 2.9,2.7 5.3,5.9 7,9.6 1.7,3.7 2.5,8.2 2.5,13.4 0,5.9 -1,11.2 -3.1,15.8 -2.1,4.6 -5.1,8.5 -8.9,11.6 -3.8,3.1 -8.5,5.5 -14.1,7.2 -5.5,1.6 -11.8,2.5 -18.7,2.5 -6.7,0 -12.2,-0.5 -16.6,-1.4 -4.4,-1 -8.5,-2.1 -12.4,-3.3 0.2,-1.7 0.6,-3.6 1.2,-5.5 0.4,-2.2 1,-4 1.7,-5.6 z"
             class="st1"
             inkscape:connector-curvature="0"
             style="fill:#cc9237" />
        </g>
      </g>
    </g>
    <flowRoot
       xml:space="preserve"
       id="flowRoot1199"
       style="font-style:normal;font-weight:normal;line-height:0.01%;font-family:sans-serif;letter-spacing:0px;word-spacing:0px;fill:#4d2f15;fill-opacity:1;stroke:none"
       inkscape:export-xdpi="90"
       inkscape:export-ydpi="90"
       transform="translate(-174.1852,-79.267761)"><flowRegion
         id="flowRegion1201"
         style="fill:#4d2f15;fill-opacity:1"><rect
           id="rect1203"
           width="139.95915"
           height="30.971169"
           x="209.19287"
           y="105.92985"
           style="fill:#4d2f15;fill-opacity:1" /></flowRegion><flowPara
         id="flowPara1205"
         style="font-style:normal;font-variant:normal;font-weight:bold;font-stretch:normal;font-size:11.28888893px;line-height:1.25;font-family:'Saira Condensed';-inkscape-font-specification:'Saira Condensed, ';text-align:center;text-anchor:middle;fill:#4d2f15;fill-opacity:1">Pour des services Internet libres !</flowPara></flowRoot>    <flowRoot
       xml:space="preserve"
       id="flowRoot1199-2"
       style="font-style:normal;font-weight:normal;line-height:0.01%;font-family:sans-serif;letter-spacing:0px;word-spacing:0px;fill:#4d2f15;fill-opacity:1;stroke:none"
       inkscape:export-xdpi="90"
       inkscape:export-ydpi="90"
       transform="translate(-142.24444,-13.532112)"><flowRegion
         id="flowRegion1201-6"
         style="fill:#4d2f15;fill-opacity:1"><rect
           id="rect1203-4"
           width="76.813263"
           height="30.468723"
           x="209.05861"
           y="270.03745"
           style="fill:#4d2f15;fill-opacity:1" /></flowRegion><flowPara
         id="flowPara1205-5"
         style="font-style:normal;font-variant:normal;font-weight:normal;font-stretch:normal;font-size:7.76111126px;line-height:1.25;font-family:Saira;-inkscape-font-specification:Saira;text-align:center;text-anchor:middle;fill:#4d2f15;fill-opacity:1">www.chatons.org</flowPara></flowRoot>    <flowRoot
       xml:space="preserve"
       id="flowRoot1199-2-1"
       style="font-style:normal;font-weight:normal;line-height:0.01%;font-family:sans-serif;letter-spacing:0px;word-spacing:0px;fill:#4d2f15;fill-opacity:1;stroke:none"
       transform="matrix(0.21060999,0,0,0.21060999,34.888953,23.827364)"
       inkscape:export-xdpi="90"
       inkscape:export-ydpi="90"><flowRegion
         id="flowRegion1201-6-7"
         style="fill:#4d2f15;fill-opacity:1"><rect
           id="rect1203-4-5"
           width="255.10843"
           height="397.91934"
           x="434.3656"
           y="147.20317"
           style="fill:#4d2f15;fill-opacity:1" /></flowRegion><flowPara
         id="flowPara4554"
         style="font-style:normal;font-variant:normal;font-weight:normal;font-stretch:normal;font-size:28.2563324px;line-height:1.25;font-family:Saira;-inkscape-font-specification:Saira;fill:#4d2f15;fill-opacity:1"><flowSpan
   style="font-weight:bold;fill:#4d2f15;fill-opacity:1"
   id="flowSpan5306">C</flowSpan>OLLECTIF DES <flowSpan
   style="font-weight:bold;letter-spacing:0.17420299px;fill:#4d2f15;fill-opacity:1"
   id="flowSpan5308">H</flowSpan><flowSpan
   style="letter-spacing:0.17420299px"
   id="flowSpan5601">ÉBERGEURS</flowSpan><flowSpan
   style="font-weight:bold;fill:#4d2f15;fill-opacity:1"
   id="flowSpan5310"> A</flowSpan>LTERNATIFS <flowSpan
   style="font-weight:bold;fill:#4d2f15;fill-opacity:1"
   id="flowSpan5312">T</flowSpan>RANSPARENTS <flowSpan
   style="font-weight:bold;fill:#4d2f15;fill-opacity:1"
   id="flowSpan5314">O</flowSpan>UVERTS <flowSpan
   style="font-weight:bold;fill:#4d2f15;fill-opacity:1"
   id="flowSpan5316">N</flowSpan>EUTRES ET <flowSpan
   style="font-weight:bold;fill:#4d2f15;fill-opacity:1"
   id="flowSpan5318">S</flowSpan>OLIDAIRES</flowPara></flowRoot>    <flowRoot
       xml:space="preserve"
       id="flowRoot1199-0-2"
       style="font-style:normal;font-weight:normal;line-height:0.01%;font-family:sans-serif;letter-spacing:0px;word-spacing:0px;fill:#4d2f15;fill-opacity:1;stroke:none"
       inkscape:export-xdpi="90"
       inkscape:export-ydpi="90"
       transform="matrix(0.28222223,0,0,0.28222223,53.887085,6.3947331)"><flowRegion
         id="flowRegion1201-7-2"
         style="fill:#4d2f15;fill-opacity:1"><rect
           id="rect1203-6-6"
           width="239.01889"
           height="119.79433"
           x="60.834213"
           y="413.08777"
           style="fill:#4d2f15;fill-opacity:1" /></flowRegion><flowPara
         id="flowPara1205-3-9"
         style="font-style:normal;font-variant:normal;font-weight:bold;font-stretch:normal;font-size:30px;line-height:1.25;font-family:'Saira Condensed';-inkscape-font-specification:'Saira Condensed, ';text-align:center;text-anchor:middle;fill:#4d2f15;fill-opacity:1">Éviter la collecte et la centralisation des données numériques </flowPara></flowRoot>    <g
       id="g878"
       transform="matrix(1.2739916,0,0,1.2739916,-28.769118,-62.290187)">
      <rect
         inkscape:export-ydpi="90"
         inkscape:export-xdpi="90"
         y="178.82368"
         x="60.043591"
         height="65.583611"
         width="90.039474"
         id="rect3218-5"
         style="opacity:1;fill:#eae8e3;fill-opacity:0.99215686;stroke:none;stroke-width:0.22785017;stroke-miterlimit:4;stroke-dasharray:none;stroke-dashoffset:0;stroke-opacity:1;filter:url(#filter6088)" />
      <rect
         inkscape:export-ydpi="90"
         inkscape:export-xdpi="90"
         y="176.79027"
         x="58.049461"
         height="65.583618"
         width="90.039474"
         id="rect3218"
         style="opacity:1;fill:#feca5d;fill-opacity:1;stroke:none;stroke-width:0.06430438;stroke-miterlimit:4;stroke-dasharray:none;stroke-dashoffset:0;stroke-opacity:1" />
      <flowRoot
         transform="matrix(0.28222223,0,0,0.28222223,55.325269,165.42374)"
         inkscape:export-ydpi="90"
         inkscape:export-xdpi="90"
         style="font-style:normal;font-weight:normal;line-height:0.01%;font-family:sans-serif;letter-spacing:0px;word-spacing:0px;fill:#4d2f15;fill-opacity:1;stroke:none"
         id="flowRoot1199-2-5"
         xml:space="preserve"><flowRegion
           style="fill:#4d2f15;fill-opacity:1"
           id="flowRegion1201-6-0"><rect
             style="fill:#4d2f15;fill-opacity:1"
             y="57.659843"
             x="21.981356"
             height="127.12249"
             width="295.0788"
             id="rect1203-4-8" /></flowRegion><flowPara
           style="font-style:normal;font-variant:normal;font-weight:normal;font-stretch:normal;font-size:20.00000191px;line-height:1.25;font-family:'Saira Condensed';-inkscape-font-specification:'Saira Condensed, ';text-align:center;text-anchor:middle;fill:#4d2f15;fill-opacity:1"
           id="flowPara1205-5-3">CHATONS est un collectif </flowPara><flowPara
           id="flowPara3871"
           style="font-style:normal;font-variant:normal;font-weight:normal;font-stretch:normal;font-size:20.00000191px;line-height:1.25;font-family:'Saira Condensed';-inkscape-font-specification:'Saira Condensed, ';text-align:center;text-anchor:middle;fill:#4d2f15;fill-opacity:1">d'associations, entreprises, collectivités, personnes individuelles, etc.,</flowPara><flowPara
           id="flowPara3873"
           style="font-style:normal;font-variant:normal;font-weight:normal;font-stretch:normal;font-size:20.00000191px;line-height:1.25;font-family:'Saira Condensed';-inkscape-font-specification:'Saira Condensed, ';text-align:center;text-anchor:middle;fill:#4d2f15;fill-opacity:1">proposant des services en ligne </flowPara><flowPara
           id="flowPara1499"
           style="font-style:normal;font-variant:normal;font-weight:normal;font-stretch:normal;font-size:20.00000191px;line-height:1.25;font-family:'Saira Condensed';-inkscape-font-specification:'Saira Condensed, ';text-align:center;text-anchor:middle;fill:#4d2f15;fill-opacity:1"> </flowPara></flowRoot>      <flowRoot
         transform="matrix(0.28222223,0,0,0.28222223,55.325269,168.06959)"
         inkscape:export-ydpi="90"
         inkscape:export-xdpi="90"
         style="font-style:normal;font-weight:normal;line-height:0.01%;font-family:sans-serif;letter-spacing:0px;word-spacing:0px;fill:#4d2f15;fill-opacity:1;stroke:none"
         id="flowRoot1199-0"
         xml:space="preserve"><flowRegion
           style="fill:#4d2f15;fill-opacity:1"
           id="flowRegion1201-7"><rect
             style="fill:#4d2f15;fill-opacity:1"
             y="180.69563"
             x="31.454786"
             height="143.16328"
             width="276.57483"
             id="rect1203-6" /></flowRegion><flowPara
           style="font-style:normal;font-variant:normal;font-weight:bold;font-stretch:normal;font-size:21.95920944px;line-height:1.25;font-family:'Saira Condensed';-inkscape-font-specification:'Saira Condensed, ';text-align:center;text-anchor:middle;fill:#4d2f15;fill-opacity:1"
           id="flowPara1205-3">LIBRES &amp; ÉTHIQUES DÉCENTRALISÉS &amp; SOLIDAIRES</flowPara></flowRoot>    </g>
    <g
       id="g768"
       transform="matrix(-1.2739916,0,0,1.2739916,287.89076,-91.948404)">
      <g
         id="g441"
         transform="matrix(-0.0462171,0,0,0.0462171,202.5683,245.69695)"
         style="fill:#9e9893;fill-opacity:1;filter:url(#filter3399)">
        <polygon
           style="fill:#9e9893;fill-opacity:1"
           class="st0"
           points="255.4,284 331,120.5 505.4,604.4 144.8,604.4 13.5,240.1 169.9,314.8 "
           id="polygon417" />
        <polygon
           style="fill:#9e9893;fill-opacity:1"
           class="st1"
           points="28.9,264 95.8,355 66.1,357.3 "
           id="polygon419" />
        <polyline
           style="fill:#9e9893;fill-opacity:1"
           class="st1"
           points="364.1,244.3 329.6,150 340.6,262.8  "
           id="polyline421" />
        <circle
           style="fill:#9e9893;fill-opacity:1"
           r="55.700001"
           transform="matrix(0.9877,-0.1564,0.1564,0.9877,-59.4858,58.6365)"
           class="st2"
           cx="342.89999"
           cy="407.29999"
           id="circle423" />
        <ellipse
           style="fill:#9e9893;fill-opacity:1"
           transform="matrix(0.9877,-0.1564,0.1564,0.9877,-59.7545,58.7579)"
           class="st1"
           cx="343.5"
           cy="409.10001"
           rx="29.700001"
           ry="37.099998"
           id="ellipse425" />
        <circle
           style="fill:#9e9893;fill-opacity:1"
           r="55.700001"
           transform="matrix(0.9877,-0.1564,0.1564,0.9877,-70.4956,34.5851)"
           class="st2"
           cx="184.5"
           cy="465.20001"
           id="circle427" />
        <polygon
           style="fill:#9e9893;fill-opacity:1"
           class="st1"
           points="299.9,510.6 282.5,516.8 253.3,503.1 257.9,492.4 304.1,475.8 314.1,480.4 "
           id="polygon429" />
        <path
           style="fill:#9e9893;fill-opacity:1"
           inkscape:connector-curvature="0"
           class="st2"
           d="m 301.7,517.3 c -7.8,6.7 32.3,20.9 71.2,5.6 15.4,-6 47.6,-29.3 46,-34.1 0,0 -25.5,24.6 -56.5,22.3 -29.8,-2.3 -47.7,-4.9 -60.7,6.2 z"
           id="path431" />
        <ellipse
           style="fill:#9e9893;fill-opacity:1"
           transform="matrix(0.8604,-0.5096,0.5096,0.8604,-212.1454,159.5454)"
           class="st1"
           cx="185.2"
           cy="467"
           rx="29.700001"
           ry="37.099998"
           id="ellipse433" />
        <path
           style="fill:#9e9893;fill-opacity:1"
           inkscape:connector-curvature="0"
           class="st2"
           d="m 289.3,521.8 c 10.3,0.2 -11.5,36.7 -51.3,49.7 -15.7,5.1 -55.3,7.8 -57.2,3 0,0 35.3,2.7 57.7,-18.9 21.6,-20.7 33.8,-34.1 50.8,-33.8 z"
           id="path435" />
        <path
           style="fill:#9e9893;fill-opacity:1;stroke:#cc9237;stroke-width:5;stroke-miterlimit:10"
           inkscape:connector-curvature="0"
           class="st3"
           d="m 297.6,527.6 c 4,11 -11.4,26.6 -34.4,34.9"
           id="path437" />
        <path
           style="fill:#9e9893;fill-opacity:1;stroke:#cc9237;stroke-width:5;stroke-miterlimit:10"
           inkscape:connector-curvature="0"
           class="st3"
           d="m 298.4,527.3 c 4,11 25.8,13.2 48.7,4.9"
           id="path439" />
      </g>
      <polygon
         transform="matrix(-0.0462171,0,0,0.0462171,201.68094,245.72005)"
         id="polygon443"
         points="144.8,604.4 13.5,240.1 169.9,314.8 255.4,284 331,120.5 505.4,604.4 "
         class="st0"
         style="fill:#4d2f15;fill-opacity:1" />
      <polygon
         transform="matrix(-0.0462171,0,0,0.0462171,201.68094,245.72005)"
         id="polygon445"
         points="28.9,264 95.8,355 66.1,357.3 "
         class="st1"
         style="fill:#cc9237" />
      <polyline
         transform="matrix(-0.0462171,0,0,0.0462171,201.68094,245.72005)"
         id="polyline447"
         points="364.1,244.3 329.6,150 340.6,262.8  "
         class="st1"
         style="fill:#cc9237" />
      <circle
         id="circle449"
         cy="232.22455"
         cx="-224.92073"
         class="st2"
         transform="matrix(-0.98769397,-0.15639895,-0.15639895,0.98769397,0,0)"
         r="2.5743082"
         style="fill:#ffffff;stroke-width:0.04621738" />
      <ellipse
         id="ellipse451"
         ry="1.7146648"
         rx="1.3726563"
         cy="232.31134"
         cx="-224.90614"
         class="st1"
         transform="matrix(-0.98769397,-0.15639895,-0.15639895,0.98769397,0,0)"
         style="fill:#cc9237;stroke-width:0.04621738" />
      <circle
         id="circle453"
         cy="233.72304"
         cx="-232.5703"
         class="st2"
         transform="matrix(-0.98769397,-0.15639895,-0.15639895,0.98769397,0,0)"
         r="2.5743082"
         style="fill:#ffffff;stroke-width:0.04621738" />
      <polygon
         transform="matrix(-0.0462171,0,0,0.0462171,201.68094,245.72005)"
         id="polygon455"
         points="257.9,492.4 304.1,475.8 314.1,480.4 299.9,510.6 282.5,516.8 253.3,503.1 "
         class="st1"
         style="fill:#cc9237" />
      <path
         id="path457"
         d="m 187.73724,269.62816 c 0.36049,0.30965 -1.49281,0.96593 -3.29066,0.25881 -0.71174,-0.2773 -2.19993,-1.35416 -2.12598,-1.576 0,0 1.17853,1.13694 2.61126,1.03064 1.37727,-0.1063 2.20456,-0.22646 2.80538,0.28655 z"
         class="st2"
         inkscape:connector-curvature="0"
         style="fill:#ffffff;stroke-width:0.0462171" />
      <ellipse
         id="ellipse459"
         ry="1.7146373"
         rx="1.3726343"
         cy="131.57304"
         cx="-302.3826"
         class="st1"
         transform="matrix(-0.86040849,-0.50960497,-0.50960497,0.86040849,0,0)"
         style="fill:#cc9237;stroke-width:0.04621664" />
      <path
         id="path461"
         d="m 188.31033,269.83613 c -0.47603,0.009 0.5315,1.69617 2.37094,2.29699 0.72561,0.23571 2.55581,0.3605 2.64362,0.13865 0,0 -1.63147,0.12479 -2.66673,-0.8735 -0.99829,-0.95669 -1.56214,-1.576 -2.34783,-1.56214 z"
         class="st2"
         inkscape:connector-curvature="0"
         style="fill:#ffffff;stroke-width:0.0462171" />
      <path
         id="path463"
         d="m 187.92673,270.10419 c -0.18487,0.50839 0.52688,1.22938 1.58987,1.61298"
         class="st3"
         inkscape:connector-curvature="0"
         style="fill:none;stroke:#cc9237;stroke-width:0.23108549;stroke-miterlimit:10" />
      <path
         id="path465"
         d="m 187.88976,270.09033 c -0.18487,0.50838 -1.1924,0.61006 -2.25078,0.22646"
         class="st3"
         inkscape:connector-curvature="0"
         style="fill:none;stroke:#cc9237;stroke-width:0.23108549;stroke-miterlimit:10" />
    </g>
  </g>
</svg>
